module github.com/docker/distribution

go 1.16

require (
	cloud.google.com/go/storage v1.18.0
	github.com/Azure/azure-sdk-for-go v58.0.0+incompatible
	github.com/Azure/go-autorest/autorest v0.11.24 // indirect
	github.com/Azure/go-autorest/autorest/to v0.4.0 // indirect
	github.com/Shopify/toxiproxy v2.1.4+incompatible
	github.com/aws/aws-sdk-go v1.40.7
	github.com/benbjohnson/clock v1.1.0
	github.com/cenkalti/backoff/v4 v4.1.1
	github.com/denverdino/aliyungo v0.0.0-20210518071019-eb3bbb144d8a
	github.com/dnaeon/go-vcr v1.0.1 // indirect
	github.com/docker/go-metrics v0.0.1
	github.com/docker/libtrust v0.0.0-20160708172513-aabc10ec26b7
	github.com/getsentry/sentry-go v0.11.0
	github.com/go-redis/redis/v8 v8.11.3
	github.com/golang/groupcache v0.0.0-20210331224755-41bb18bfe9da // indirect
	github.com/golang/mock v1.6.0
	github.com/gorilla/handlers v1.5.1
	github.com/gorilla/mux v1.8.0
	github.com/hashicorp/errwrap v1.1.0 // indirect
	github.com/hashicorp/go-multierror v1.1.1
	github.com/jackc/pgconn v1.10.0
	github.com/jackc/pgerrcode v0.0.0-20201024163028-a0d42d470451
	github.com/jackc/pgx/v4 v4.13.0
	github.com/jszwec/csvutil v1.5.1
	github.com/mattn/go-runewidth v0.0.12 // indirect
	github.com/mitchellh/mapstructure v1.4.1
	github.com/ncw/swift v1.0.52
	github.com/olekukonko/tablewriter v0.0.5
	github.com/opencontainers/go-digest v1.0.0
	github.com/opencontainers/image-spec v1.0.1
	github.com/prometheus/client_golang v1.11.0
	github.com/prometheus/client_model v0.2.0
	github.com/prometheus/common v0.29.0 // indirect
	github.com/prometheus/procfs v0.7.1 // indirect
	github.com/rivo/uniseg v0.2.0 // indirect
	github.com/rubenv/sql-migrate v0.0.0-20210614095031-55d5740dbbcc
	github.com/sirupsen/logrus v1.8.1
	github.com/spf13/cobra v1.2.1
	github.com/stretchr/testify v1.7.0
	github.com/ziutek/mymysql v1.5.4 // indirect
	gitlab.com/gitlab-org/labkit v1.10.0
	golang.org/x/crypto v0.0.0-20211215153901-e495a2d5b3d3
	golang.org/x/oauth2 v0.0.0-20211005180243-6b3c2da341f1
	golang.org/x/sync v0.0.0-20210220032951-036812b2e83c
	golang.org/x/sys v0.0.0-20211007075335-d3039528d8ac // indirect
	golang.org/x/text v0.3.7 // indirect
	golang.org/x/time v0.0.0-20210723032227-1f47c861a9ac
	google.golang.org/api v0.58.0
	google.golang.org/genproto v0.0.0-20211011165927-a5fb3255271e // indirect
	google.golang.org/grpc v1.41.0 // indirect
	gopkg.in/check.v1 v1.0.0-20201130134442-10cb98267c6c
	gopkg.in/yaml.v2 v2.4.0
)
